…
    `summarise()` has grouped output by 'Year'. You can override using the
    `.groups` argument.

``` r
as.tibble(games_counts_genre)
```

    Warning: `as.tibble()` was deprecated in tibble 2.0.0.
    Please use `as_tibble()` instead.
    The signature and semantics have changed, see `?as_tibble`.
    This warning is displayed once every 8 hours.
    Call `lifecycle::last_lifecycle_warnings()` to see where this warning was generated.

    # A tibble: 389 × 3
        Year Genre    Number
       <int> <chr>     <int>
     1  1980 Action        1
     2  1980 Fighting      1
     3  1980 Misc          4
     4  1980 Shooter       2
     5  1980 Sports        1
     6  1981 Action       25
     7  1981 Platform      3
     8  1981 Puzzle        2
     9  1981 Racing        1
    10  1981 Shooter      10
    # … with 379 more rows
…
