…
    ## Warning: NAs introduced by coercion

``` r
hs_completed <- pct_completed_hs %>% 
  drop_na() %>%
  group_by(Geographic.Area) %>%
  summarise(avg = mean((percent_completed_hs))) %>%
  arrange(desc(avg))

hs_completed
```

    ## # A tibble: 51 × 2
    ##    Geographic.Area   avg
    ##    <chr>           <dbl>
    ##  1 MA               92.4
    ##  2 WY               92.1
    ##  3 HI               91.7
    ##  4 UT               91.6
    ##  5 CT               91.6
    ##  6 ME               91.4
    ##  7 NJ               90.9
    ##  8 NH               90.7
    ##  9 NY               90.6
    ## 10 MT               90.5
    ## # … with 41 more rows
…
    ## Warning: NAs introduced by coercion

``` r
share_race_city$share_hispanic <- as.numeric(share_race_city$share_hispanic)
```

    ## Warning: NAs introduced by coercion

``` r
as_tibble(share_race_city)
```

    ## # A tibble: 29,268 × 7
    ##    Geographic.area City     share_white share_black share_native_am… share_asian
    ##    <chr>           <chr>          <dbl>       <dbl>            <dbl>       <dbl>
    ##  1 AL              Abanda …        67.2        30.2              0           0  
    ##  2 AL              Abbevil…        54.4        41.4              0.1         1  
    ##  3 AL              Adamsvi…        52.3        44.9              0.5         0.3
    ##  4 AL              Addison…        99.1         0.1              0           0.1
    ##  5 AL              Akron t…        13.2        86.5              0           0  
    ##  6 AL              Alabast…        79.4        13.5              0.4         0.9
    ##  7 AL              Albertv…        75.9         1.9              0.8         0.5
    ##  8 AL              Alexand…        62.2        32                0.2         0.9
    ##  9 AL              Alexand…        87.4        10.2              0.3         0.5
    ## 10 AL              Alicevi…        22.6        74.9              0.1         0  
    ## # … with 29,258 more rows, and 1 more variable: share_hispanic <dbl>

``` r
summary_race_share <- share_race_city %>% 
  group_by(Geographic.area) %>% 
  summarise(across(starts_with("share"), ~ mean(.x, na.rm = TRUE)))

as_tibble(summary_race_share)
```

    ## # A tibble: 51 × 6
    ##    Geographic.area share_white share_black share_native_american share_asian
    ##    <chr>                 <dbl>       <dbl>                 <dbl>       <dbl>
    ##  1 AK                     45.6       0.567                45.9         1.39 
    ##  2 AL                     72.5      23.3                   0.659       0.480
    ##  3 AR                     78.4      16.3                   0.760       0.477
    ##  4 AZ                     59.9       0.955                28.6         0.727
    ##  5 CA                     71.9       2.69                  1.72        5.57 
    ##  6 CO                     87.8       0.918                 1.62        1.15 
    ##  7 CT                     86.1       4.99                  0.657       2.99 
    ##  8 DC                     38.5      50.7                   0.3         3.5  
    ##  9 DE                     76.2      15.4                   0.524       2    
    ## 10 FL                     78.7      13.4                   0.455       1.62 
    ## # … with 41 more rows, and 1 more variable: share_hispanic <dbl>
…
