…
**Variable type: numeric**

| skim_variable | n_missing | complete_rate |    mean |      sd |   p0 |  p25 |  p50 |  p75 |     p100 | hist  |
|:--------------|----------:|--------------:|--------:|--------:|-----:|-----:|-----:|-----:|---------:|:------|
| year          |         0 |             1 | 1974.85 |   34.03 | 1880 | 1951 | 1985 | 2003 |  2017.00 | ▁▂▃▅▇ |
| n             |         0 |             1 |  180.87 | 1533.34 |    5 |    7 |   12 |   32 | 99686.00 | ▇▁▁▁▁ |
| prop          |         0 |             1 |    0.00 |    0.00 |    0 |    0 |    0 |    0 |     0.08 | ▇▁▁▁▁ |

``` r
# check for most common names
babynames %>% 
  count(name) %>% arrange(desc(n))
```

    ## # A tibble: 97,310 × 2
    ##    name        n
    ##    <chr>   <int>
    ##  1 Francis   276
    ##  2 James     276
    ##  3 Jean      276
    ##  4 Jesse     276
    ##  5 Jessie    276
    ##  6 John      276
    ##  7 Johnnie   276
    ##  8 Joseph    276
    ##  9 Lee       276
    ## 10 Leslie    276
    ## # … with 97,300 more rows
…
