…
``` r
USA_trade <- exports_master %>%
  filter(Country == "U S A")
USA_trade
```

    ## # A tibble: 25 × 7
    ##    Country Export Import `Total Trade` `Trade Balance` `Year(start)` `Year(end)`
    ##    <chr>    <dbl>  <dbl>         <dbl>           <dbl>         <dbl>       <dbl>
    ##  1 U S A    6735.  3714.        10450.           3021.            97          98
    ##  2 U S A    7200.  3640.        10840.           3559.            98          99
    ##  3 U S A    8396.  3560.        11956.           4835.            99        2000
    ##  4 U S A    9305.  3015         12320.           6290.          2000        2001
    ##  5 U S A    8513.  3150.        11663.           5364.          2001        2002
    ##  6 U S A   10896.  4444.        15339.           6452.          2002        2003
    ##  7 U S A   11490.  5035.        16525.           6455.          2003        2004
    ##  8 U S A   13766.  7001.        20767.           6764.          2004        2005
    ##  9 U S A   17353.  9455.        26808.           7898.          2005        2006
    ## 10 U S A   18863. 11738.        30602.           7125.          2006        2007
    ## # … with 15 more rows

``` r
USA_trade$`Year(start)` <-
  lubridate::parse_date_time(USA_trade$`Year(start)`, '%y')
USA_trade$`Total Trade` <- as.integer(USA_trade$`Total Trade`)

USA_trade
```

    ## # A tibble: 25 × 7
    ##    Country Export Import `Total Trade` `Trade Balance` `Year(start)`      
    ##    <chr>    <dbl>  <dbl>         <int>           <dbl> <dttm>             
    ##  1 U S A    6735.  3714.         10449           3021. 1997-01-01 00:00:00
    ##  2 U S A    7200.  3640.         10839           3559. 1998-01-01 00:00:00
    ##  3 U S A    8396.  3560.         11955           4835. 1999-01-01 00:00:00
    ##  4 U S A    9305.  3015          12320           6290. 2000-01-01 00:00:00
    ##  5 U S A    8513.  3150.         11662           5364. 2001-01-01 00:00:00
    ##  6 U S A   10896.  4444.         15339           6452. 2002-01-01 00:00:00
    ##  7 U S A   11490.  5035.         16524           6455. 2003-01-01 00:00:00
    ##  8 U S A   13766.  7001.         20767           6764. 2004-01-01 00:00:00
    ##  9 U S A   17353.  9455.         26807           7898. 2005-01-01 00:00:00
    ## 10 U S A   18863. 11738.         30601           7125. 2006-01-01 00:00:00
    ## # … with 15 more rows, and 1 more variable: `Year(end)` <dbl>

``` r
USA_trade_net <- USA_trade %>%
  mutate(total_profit = (Export - Import))
USA_trade_net
```

    ## # A tibble: 25 × 8
    ##    Country Export Import `Total Trade` `Trade Balance` `Year(start)`      
    ##    <chr>    <dbl>  <dbl>         <int>           <dbl> <dttm>             
    ##  1 U S A    6735.  3714.         10449           3021. 1997-01-01 00:00:00
    ##  2 U S A    7200.  3640.         10839           3559. 1998-01-01 00:00:00
    ##  3 U S A    8396.  3560.         11955           4835. 1999-01-01 00:00:00
    ##  4 U S A    9305.  3015          12320           6290. 2000-01-01 00:00:00
    ##  5 U S A    8513.  3150.         11662           5364. 2001-01-01 00:00:00
    ##  6 U S A   10896.  4444.         15339           6452. 2002-01-01 00:00:00
    ##  7 U S A   11490.  5035.         16524           6455. 2003-01-01 00:00:00
    ##  8 U S A   13766.  7001.         20767           6764. 2004-01-01 00:00:00
    ##  9 U S A   17353.  9455.         26807           7898. 2005-01-01 00:00:00
    ## 10 U S A   18863. 11738.         30601           7125. 2006-01-01 00:00:00
    ## # … with 15 more rows, and 2 more variables: `Year(end)` <dbl>,
    ## #   total_profit <dbl>
…
